…
```r
library(readr)
library(dplyr)

questions <- read_csv("questions.csv.gz")
question_tags <- read_csv("question_tags.csv.gz")
```


```r
questions
```

```
## # A tibble: 16,238,301 × 7
##       Id        CreationDate          ClosedDate        DeletionDate Score
##    <int>              <dttm>              <dttm>              <dttm> <int>
## 1      1 2008-07-31 21:26:37                <NA> 2011-03-28 00:53:47     1
## 2      4 2008-07-31 21:42:52                <NA>                <NA>   427
## 3      6 2008-07-31 22:08:08                <NA>                <NA>   194
## 4      8 2008-07-31 23:33:19 2013-06-03 04:00:25 2015-02-11 08:26:40    42
## 5      9 2008-07-31 23:40:59                <NA>                <NA>  1333
## 6     11 2008-07-31 23:55:37                <NA>                <NA>  1084
## 7     13 2008-08-01 00:42:38                <NA>                <NA>   433
## 8     14 2008-08-01 00:59:11                <NA>                <NA>   276
## 9     16 2008-08-01 04:59:33                <NA>                <NA>    69
## 10    17 2008-08-01 05:09:55                <NA>                <NA>   104
## # ... with 16,238,291 more rows, and 2 more variables: OwnerUserId <int>,
## #   AnswerCount <int>
```

```r
question_tags
```

```
## # A tibble: 47,713,261 × 2
##       Id                 Tag
##    <int>               <chr>
## 1      1                data
## 2      4                  c#
## 3      4            winforms
## 4      4     type-conversion
## 5      4             decimal
## 6      4             opacity
## 7      6                html
## 8      6                 css
## 9      6                css3
## 10     6 internet-explorer-7
## # ... with 47,713,251 more rows
```

As one example, you could find the most popular tags:


```r
question_tags %>%
  count(Tag, sort = TRUE)
```

```
## # A tibble: 56,798 × 2
##           Tag       n
##         <chr>   <int>
## 1  javascript 1540123
## 2        java 1474705
## 3         php 1296218
## 4          c# 1258269
## 5     android 1219858
## 6      jquery  967536
## 7      python  782220
## 8        html  728505
## 9         ios  602047
## 10        c++  594281
## # ... with 56,788 more rows
```
…
